Religions of Linguists and Harassment
…
`summarise()` has grouped output by 'Religion', 'Bias_incidents'. You can
override using the `.groups` argument.

# Rename LDS and Spiritual
biasIncidentData$Religion[biasIncidentData$Religion == "Latter Day Saints/Mormon"] <- "LDS"
biasIncidentData$Religion[biasIncidentData$Religion == "Spiritual but not religious"] <- "Spiritual"
# Remove NA value
biasIncidentData <- biasIncidentData[-(98),]

biasIncidentData

# A tibble: 122 × 6
   Religion Bias_incidents Bias_incidents_target num_respondents
   <chr>    <fct>          <fct>                           <int>
 1 Agnostic Constantly     Constantly                          1
 2 Agnostic Constantly     Often                               4
 3 Agnostic Constantly     Rarely                              3
 4 Agnostic Never          Never                              15
 5 Agnostic Often          Never                               1
 6 Agnostic Often          Often                               8
 7 Agnostic Often          Rarely                              9
 8 Agnostic Often          Sometimes                          22
 9 Agnostic Rarely         Never                              34
10 Agnostic Rarely         Rarely                             45
# ℹ 112 more rows
# ℹ 2 more variables: total_respondents <int>, pct_respondents <dbl>
…
# Group by the isolation response, religion, and count
religionIsoPData <- religionIsolationPersonal %>%
  group_by(Religion, Isolation_personal_identity) %>%
  # Counts the unique items & arranges it from most to least
  count(Religion, Isolation_personal_identity)

religionIsoPData

# A tibble: 35 × 3
# Groups:   Religion, Isolation_personal_identity [35]
   Religion    Isolation_personal_identity     n
   <chr>       <chr>                       <int>
 1 "Agnostic"  No                            126
 2 "Agnostic"  Not sure                       52
 3 "Agnostic"  Yes                            58
 4 "Atheist"   No                            218
 5 "Atheist"   Not sure                       73
 6 "Atheist"   Yes                           108
 7 "Buddhist"  No                              7
 8 "Buddhist"  Not sure                        2
 9 "Buddhist"  Yes                             3
10 "Buddhist " No                              2
# ℹ 25 more rows
…
